…
## 3. Extract detection matrix for a species

Finally, we can extract detection matrix from selected species.

``` r
# Calculate 3D distance and matrix replicate
transect_dm <- track2dm::speciesDM(speciesDF = transect_rep, datetimeCol = "DateTime", 
                                   Xcol = "X", Ycol = "Y", speciesCol = "Observation", 
                                   species = "animal signs", extractVars = c("Age", "Type"))
transect_dm
#> # A tibble: 36 x 7
#>    Replicate DateTime       X       Y Presence Age   Type   
#>        <int> <chr>      <dbl>   <dbl> <chr>    <chr> <chr>  
#>  1         1 DateTime 353215. 406684. 0        <NA>  <NA>   
#>  2         2 DateTime 353751. 407263. 0        <NA>  <NA>   
#>  3         3 DateTime 353802. 408026. 0        <NA>  <NA>   
#>  4         4 DateTime 354691. 408109. 0        <NA>  <NA>   
#>  5         5 DateTime 355565. 407989. 1        New   Scratch
#>  6         6 DateTime 356211. 408361. 0        <NA>  <NA>   
#>  7         7 DateTime 356966. 408947. 1        Old   Scat   
#>  8         8 DateTime 357584. 409366. 0        <NA>  <NA>   
#>  9         9 DateTime 358202. 409888. 0        <NA>  <NA>   
#> 10        10 DateTime 359118. 409932. 0        <NA>  <NA>   
#> # ... with 26 more rows
```
…
